<?xml version="1.0" encoding="UTF-8" standalone="no"?>
<!-- Created with Inkscape (http://www.inkscape.org/) -->

<svg
   xmlns:dc="http://purl.org/dc/elements/1.1/"
   xmlns:cc="http://creativecommons.org/ns#"
   xmlns:rdf="http://www.w3.org/1999/02/22-rdf-syntax-ns#"
   xmlns:svg="http://www.w3.org/2000/svg"
   xmlns="http://www.w3.org/2000/svg"
   xmlns:sodipodi="http://sodipodi.sourceforge.net/DTD/sodipodi-0.dtd"
   xmlns:inkscape="http://www.inkscape.org/namespaces/inkscape"
   width="168.16666mm"
   height="145.67708mm"
   viewBox="0 0 168.16666 145.67708"
   version="1.1"
   id="svg8"
   inkscape:version="0.92.2 (5c3e80d, 2017-08-06)"
   sodipodi:docname="persy_flipped.svg"
   inkscape:export-filename="/home/tglman/my/sites/persy.rs/logo.png"
   inkscape:export-xdpi="40.209999"
   inkscape:export-ydpi="40.209999">
  <defs
     id="defs2" />
  <sodipodi:namedview
     id="base"
     pagecolor="#ffffff"
     bordercolor="#666666"
     borderopacity="1.0"
     inkscape:pageopacity="0.0"
     inkscape:pageshadow="2"
     inkscape:zoom="0.35"
     inkscape:cx="-10.239241"
     inkscape:cy="-11.357943"
     inkscape:document-units="mm"
     inkscape:current-layer="layer1"
     showgrid="false"
     fit-margin-top="10"
     fit-margin-left="10"
     fit-margin-right="10"
     fit-margin-bottom="10"
     inkscape:window-width="1920"
     inkscape:window-height="989"
     inkscape:window-x="0"
     inkscape:window-y="27"
     inkscape:window-maximized="1" />
  <metadata
     id="metadata5">
    <rdf:RDF>
      <cc:Work
         rdf:about="">
        <dc:format>image/svg+xml</dc:format>
        <dc:type
           rdf:resource="http://purl.org/dc/dcmitype/StillImage" />
        <dc:title />
      </cc:Work>
    </rdf:RDF>
  </metadata>
  <g
     inkscape:label="Layer 1"
     inkscape:groupmode="layer"
     id="layer1"
     transform="translate(-24.01786,-78.35714)">
    <g
       id="g4530"
       transform="rotate(81.476876,114.34712,169.77104)"
       style="fill:#ffffff;fill-opacity:1"
       inkscape:export-filename="/home/tglman/my/sites/persy.rs/g4530.png"
       inkscape:export-xdpi="40.209999"
       inkscape:export-ydpi="40.209999">
      <path
         style="opacity:0.972;fill:#ffffff;fill-opacity:1;fill-rule:nonzero;stroke:none;stroke-width:0.99999982;stroke-opacity:1"
         d="M 489.38086,22.310547 318.16016,214.58789 102.23633,22.310547 Z m 119.71094,0 V 473.6543 L 384.8418,273.96484 608.93359,22.310547 Z M 253.55859,287.13672 32.785156,535.0625 H 26.121094 V 84.607422 Z M 531.97656,535.0625 H 152.33789 L 320.23828,346.51367 Z"
         transform="matrix(0.03921351,-0.26166131,0.26166131,0.03921351,10.555214,245.55439)"
         id="rect4485-3-6-7"
         inkscape:connector-curvature="0"
         sodipodi:nodetypes="cccccccccccccccccc" />
    </g>
  </g>
</svg>
