<?xml version="1.0" encoding="UTF-8" standalone="no"?>
<!-- Created with Inkscape (http://www.inkscape.org/) -->

<svg
   xmlns:dc="http://purl.org/dc/elements/1.1/"
   xmlns:cc="http://creativecommons.org/ns#"
   xmlns:rdf="http://www.w3.org/1999/02/22-rdf-syntax-ns#"
   xmlns:svg="http://www.w3.org/2000/svg"
   xmlns="http://www.w3.org/2000/svg"
   xmlns:sodipodi="http://sodipodi.sourceforge.net/DTD/sodipodi-0.dtd"
   xmlns:inkscape="http://www.inkscape.org/namespaces/inkscape"
   width="119.23588mm"
   height="139.78725mm"
   viewBox="0 0 119.23588 139.78725"
   version="1.1"
   id="svg8"
   inkscape:version="0.92.4 (5da689c313, 2019-01-14)"
   sodipodi:docname="log04.svg"
   inkscape:export-filename="/home/tglman/bitmap.png"
   inkscape:export-xdpi="40.209999"
   inkscape:export-ydpi="40.209999">
  <defs
     id="defs2" />
  <sodipodi:namedview
     id="base"
     pagecolor="#ffffff"
     bordercolor="#666666"
     borderopacity="1.0"
     inkscape:pageopacity="0.0"
     inkscape:pageshadow="2"
     inkscape:zoom="0.1767767"
     inkscape:cx="1921.7477"
     inkscape:cy="-298.00342"
     inkscape:document-units="mm"
     inkscape:current-layer="layer1"
     showgrid="false"
     inkscape:window-width="2048"
     inkscape:window-height="1060"
     inkscape:window-x="0"
     inkscape:window-y="28"
     inkscape:window-maximized="1"
     fit-margin-top="0"
     fit-margin-left="0"
     fit-margin-right="0"
     fit-margin-bottom="0" />
  <metadata
     id="metadata5">
    <rdf:RDF>
      <cc:Work
         rdf:about="">
        <dc:format>image/svg+xml</dc:format>
        <dc:type
           rdf:resource="http://purl.org/dc/dcmitype/StillImage" />
        <dc:title></dc:title>
      </cc:Work>
    </rdf:RDF>
  </metadata>
  <g
     inkscape:label="Layer 1"
     inkscape:groupmode="layer"
     id="layer1"
     transform="translate(-25.649688,-118.86413)">
    <path
       id="path5184-5"
       style="fill:#000000;fill-opacity:1;fill-rule:evenodd;stroke:none;stroke-width:0.22654353px;stroke-linecap:butt;stroke-linejoin:miter;stroke-opacity:1"
       d="m 138.75182,225.9381 c 0.0104,-6.81065 -10.72063,-6.81065 -10.69292,0 -0.0277,7.21226 10.7033,7.21226 10.69292,0 z m -95.744952,1.37067 c 0.01041,-6.81065 -10.191451,-6.81065 -10.163746,0 -0.02771,7.21226 10.174127,7.21226 10.163746,0 z m 89.769122,13.93153 c 0.15346,23.4907 -95.27652,22.87479 -95.320288,0.18916 L 27.830518,231.1881 c -2.89883,-3.24071 -2.939533,-6.9408 0.06855,-10.24137 l 9.556608,-10.24136 c 0.04377,22.68563 95.473754,23.30154 95.320294,-0.18916 l 9.61234,9.91063 c 3.33336,3.82953 3.32598,6.71062 0,10.24137 z"
       inkscape:connector-curvature="0"
       sodipodi:nodetypes="ccccccccccccccc" />
    <path
       inkscape:connector-curvature="0"
       id="path5184-5-6"
       style="fill:#000000;fill-opacity:1;fill-rule:evenodd;stroke:none;stroke-width:0.22654353px;stroke-linecap:butt;stroke-linejoin:miter;stroke-opacity:1"
       d="m 137.29661,156.08774 c 0.0104,-6.81065 -10.45604,-6.81065 -10.42833,0 -0.0277,7.21226 10.43871,7.21226 10.42833,0 z m -94.686617,1.50296 c 0.01041,-6.81065 -10.456035,-6.94294 -10.42833,-0.13229 -0.02771,7.21226 10.438711,7.34455 10.42833,0.13229 z m 90.165997,13.93153 c 0.15346,23.4907 -95.27652,22.87479 -95.320288,0.18916 l -9.625184,-10.24136 c -2.89883,-3.24071 -2.939533,-6.9408 0.06855,-10.24137 l 9.556608,-10.24136 c 0.04377,22.68563 95.473754,23.30154 95.320294,-0.18916 l 9.61234,9.91063 c 3.33336,3.82953 3.32598,6.71062 0,10.24137 z"
       sodipodi:nodetypes="ccccccccccccccc" />
    <path
       style="fill:#000000;fill-opacity:1;fill-rule:evenodd;stroke:none;stroke-width:0.22654353px;stroke-linecap:butt;stroke-linejoin:miter;stroke-opacity:1"
       d="m 132.776,206.38126 c 0.15346,23.4907 -95.276534,22.87479 -95.320302,0.18916 l -2.6e-5,-30.72409 c 0.04377,22.68563 95.473758,23.30154 95.320308,-0.18916 z"
       id="path5184-5-6-2"
       inkscape:connector-curvature="0"
       sodipodi:nodetypes="ccccc" />
    <path
       id="path5249-1"
       style="fill:#000000;fill-opacity:1;fill-rule:evenodd;stroke:none;stroke-width:0.22654353px;stroke-linecap:butt;stroke-linejoin:miter;stroke-opacity:1"
       d="m 132.92778,136.08604 c -0.0438,-22.68563 -95.47376,-23.30154 -95.320303,0.18916 m 0,0 c 0.04377,22.68563 95.473753,23.30154 95.320303,-0.18916"
       inkscape:connector-curvature="0" />
  </g>
</svg>
